2018-11-19 17:29:22.650 +00:00 [INF] User profile is available. Using 'C:\Users\Dorcas\AppData\Local\ASP.NET\DataProtection-Keys' as key repository and Windows DPAPI to encrypt keys at rest.
2018-11-19 17:29:23.797 +00:00 [INF] Request starting HTTP/1.1 GET http://localhost:44311/swagger  
2018-11-19 17:29:23.797 +00:00 [INF] Request starting HTTP/1.1 DEBUG http://localhost:55786/  0
2018-11-19 17:29:23.854 +00:00 [INF] Request finished in 57.5398ms 200 
2018-11-19 17:29:23.856 +00:00 [INF] Request finished in 61.4029ms 301 
2018-11-19 17:29:23.862 +00:00 [INF] Request starting HTTP/1.1 GET http://localhost:44311/swagger/index.html  
2018-11-19 17:29:23.869 +00:00 [INF] Request finished in 7.5916ms 200 text/html
2018-11-19 17:29:23.884 +00:00 [INF] Request starting HTTP/1.1 GET http://localhost:44311/swagger/swagger-ui.css  
2018-11-19 17:29:23.884 +00:00 [INF] Request starting HTTP/1.1 GET http://localhost:44311/swagger/swagger-ui-bundle.js  
2018-11-19 17:29:23.885 +00:00 [INF] Request starting HTTP/1.1 GET http://localhost:44311/swagger/swagger-ui-standalone-preset.js  
2018-11-19 17:29:23.985 +00:00 [INF] Sending file. Request path: '/swagger-ui.css'. Physical path: 'N/A'
2018-11-19 17:29:23.992 +00:00 [INF] Sending file. Request path: '/swagger-ui-standalone-preset.js'. Physical path: 'N/A'
2018-11-19 17:29:23.999 +00:00 [INF] Request finished in 115.1406ms 200 text/css
2018-11-19 17:29:23.999 +00:00 [INF] Request finished in 114.084ms 200 application/javascript
2018-11-19 17:29:24.081 +00:00 [INF] Sending file. Request path: '/swagger-ui-bundle.js'. Physical path: 'N/A'
2018-11-19 17:29:24.081 +00:00 [INF] Request finished in 197.254ms 200 application/javascript
2018-11-19 17:29:24.421 +00:00 [INF] Request starting HTTP/1.1 GET http://localhost:44311/swagger/v1/swagger.json  
2018-11-19 17:29:24.739 +00:00 [INF] Request finished in 318.152ms 200 application/json;charset=utf-8
2018-11-19 17:29:55.656 +00:00 [INF] Request starting HTTP/1.1 POST http://localhost:44311/api/Industries application/json-patch+json 45
2018-11-19 17:29:55.726 +00:00 [INF] Route matched with {action = "PostIndustry", controller = "Industries"}. Executing action PoachMe.Controllers.IndustriesController.PostIndustry (PoachMe)
2018-11-19 17:29:55.815 +00:00 [INF] Executing action method PoachMe.Controllers.IndustriesController.PostIndustry (PoachMe) with arguments (["PoachMe.Models.Industry"]) - Validation state: "Valid"
2018-11-19 17:29:56.255 +00:00 [INF] Entity Framework Core 2.1.4-rtm-31024 initialized 'PoachMeContext' using provider 'Npgsql.EntityFrameworkCore.PostgreSQL' with options: None
2018-11-19 17:29:57.180 +00:00 [INF] Executed DbCommand (8ms) [Parameters=[@p0='?'], CommandType='"Text"', CommandTimeout='30']
INSERT INTO "Industry" ("IndustryName")
VALUES (@p0)
RETURNING "IndustryId";
2018-11-19 17:29:57.233 +00:00 [INF] Executed action method PoachMe.Controllers.IndustriesController.PostIndustry (PoachMe), returned result Microsoft.AspNetCore.Mvc.CreatedAtActionResult in 1405.7119ms.
2018-11-19 17:29:57.243 +00:00 [INF] Executing ObjectResult, writing value of type 'PoachMe.Models.Industry'.
2018-11-19 17:29:57.261 +00:00 [INF] Executed action PoachMe.Controllers.IndustriesController.PostIndustry (PoachMe) in 1531.5274000000002ms
2018-11-19 17:29:57.266 +00:00 [INF] Request finished in 1610.2278ms 201 application/json; charset=utf-8
2018-11-19 17:30:29.429 +00:00 [INF] Request starting HTTP/1.1 PUT http://localhost:44311/api/Industries/2 application/json-patch+json 51
2018-11-19 17:30:29.443 +00:00 [INF] Route matched with {action = "PutIndustry", controller = "Industries"}. Executing action PoachMe.Controllers.IndustriesController.PutIndustry (PoachMe)
2018-11-19 17:30:29.447 +00:00 [INF] Executing action method PoachMe.Controllers.IndustriesController.PutIndustry (PoachMe) with arguments (["2","PoachMe.Models.Industry"]) - Validation state: "Valid"
2018-11-19 17:30:29.449 +00:00 [INF] Entity Framework Core 2.1.4-rtm-31024 initialized 'PoachMeContext' using provider 'Npgsql.EntityFrameworkCore.PostgreSQL' with options: None
2018-11-19 17:30:29.511 +00:00 [INF] Executed DbCommand (29ms) [Parameters=[@p1='?' (DbType = Int32), @p0='?'], CommandType='"Text"', CommandTimeout='30']
UPDATE "Industry" SET "IndustryName" = @p0
WHERE "IndustryId" = @p1;
2018-11-19 17:30:29.512 +00:00 [INF] Executed action method PoachMe.Controllers.IndustriesController.PutIndustry (PoachMe), returned result Microsoft.AspNetCore.Mvc.NoContentResult in 65.2248ms.
2018-11-19 17:30:29.515 +00:00 [INF] Executing HttpStatusCodeResult, setting HTTP status code 204
2018-11-19 17:30:29.515 +00:00 [INF] Executed action PoachMe.Controllers.IndustriesController.PutIndustry (PoachMe) in 71.94ms
2018-11-19 17:30:29.515 +00:00 [INF] Request finished in 86.4522ms 204 
2018-11-19 17:31:17.919 +00:00 [INF] Request starting HTTP/1.1 PUT http://localhost:44311/api/Industries/2 application/json-patch+json 51
2018-11-19 17:31:17.924 +00:00 [INF] Route matched with {action = "PutIndustry", controller = "Industries"}. Executing action PoachMe.Controllers.IndustriesController.PutIndustry (PoachMe)
2018-11-19 17:31:17.925 +00:00 [INF] Executing action method PoachMe.Controllers.IndustriesController.PutIndustry (PoachMe) with arguments (["2","PoachMe.Models.Industry"]) - Validation state: "Valid"
2018-11-19 17:31:17.925 +00:00 [INF] Entity Framework Core 2.1.4-rtm-31024 initialized 'PoachMeContext' using provider 'Npgsql.EntityFrameworkCore.PostgreSQL' with options: None
2018-11-19 17:31:17.933 +00:00 [INF] Executed DbCommand (6ms) [Parameters=[@p1='?' (DbType = Int32), @p0='?'], CommandType='"Text"', CommandTimeout='30']
UPDATE "Industry" SET "IndustryName" = @p0
WHERE "IndustryId" = @p1;
2018-11-19 17:31:17.935 +00:00 [INF] Executed action method PoachMe.Controllers.IndustriesController.PutIndustry (PoachMe), returned result Microsoft.AspNetCore.Mvc.NoContentResult in 10.673ms.
2018-11-19 17:31:17.936 +00:00 [INF] Executing HttpStatusCodeResult, setting HTTP status code 204
2018-11-19 17:31:17.936 +00:00 [INF] Executed action PoachMe.Controllers.IndustriesController.PutIndustry (PoachMe) in 11.623800000000001ms
2018-11-19 17:31:17.936 +00:00 [INF] Request finished in 17.3946ms 204 
2018-11-19 17:31:52.671 +00:00 [INF] Request starting HTTP/1.1 PUT http://localhost:44311/api/Industries/2 application/json-patch+json 51
2018-11-19 17:31:52.672 +00:00 [INF] Route matched with {action = "PutIndustry", controller = "Industries"}. Executing action PoachMe.Controllers.IndustriesController.PutIndustry (PoachMe)
2018-11-19 17:31:52.673 +00:00 [INF] Executing action method PoachMe.Controllers.IndustriesController.PutIndustry (PoachMe) with arguments (["2","PoachMe.Models.Industry"]) - Validation state: "Valid"
2018-11-19 17:31:52.673 +00:00 [INF] Executed action method PoachMe.Controllers.IndustriesController.PutIndustry (PoachMe), returned result Microsoft.AspNetCore.Mvc.BadRequestResult in 0.2024ms.
2018-11-19 17:31:52.674 +00:00 [INF] Executing HttpStatusCodeResult, setting HTTP status code 400
2018-11-19 17:31:52.674 +00:00 [INF] Executed action PoachMe.Controllers.IndustriesController.PutIndustry (PoachMe) in 2.0425ms
2018-11-19 17:31:52.674 +00:00 [INF] Request finished in 2.5836ms 400 
2018-11-19 17:31:54.191 +00:00 [INF] Request starting HTTP/1.1 PUT http://localhost:44311/api/Industries/2 application/json-patch+json 51
2018-11-19 17:31:54.193 +00:00 [INF] Route matched with {action = "PutIndustry", controller = "Industries"}. Executing action PoachMe.Controllers.IndustriesController.PutIndustry (PoachMe)
2018-11-19 17:31:54.194 +00:00 [INF] Executing action method PoachMe.Controllers.IndustriesController.PutIndustry (PoachMe) with arguments (["2","PoachMe.Models.Industry"]) - Validation state: "Valid"
2018-11-19 17:31:54.194 +00:00 [INF] Executed action method PoachMe.Controllers.IndustriesController.PutIndustry (PoachMe), returned result Microsoft.AspNetCore.Mvc.BadRequestResult in 0.0059ms.
2018-11-19 17:31:54.194 +00:00 [INF] Executing HttpStatusCodeResult, setting HTTP status code 400
2018-11-19 17:31:54.194 +00:00 [INF] Executed action PoachMe.Controllers.IndustriesController.PutIndustry (PoachMe) in 1.4141000000000001ms
2018-11-19 17:31:54.194 +00:00 [INF] Request finished in 3.535ms 400 
2018-11-19 17:34:16.952 +00:00 [INF] User profile is available. Using 'C:\Users\Dorcas\AppData\Local\ASP.NET\DataProtection-Keys' as key repository and Windows DPAPI to encrypt keys at rest.
2018-11-19 17:34:17.950 +00:00 [DBG] Failed to authenticate HTTPS connection.
System.IO.IOException: Authentication failed because the remote party has closed the transport stream.
   at System.Net.Security.SslState.StartReadFrame(Byte[] buffer, Int32 readBytes, AsyncProtocolRequest asyncRequest)
   at System.Net.Security.SslState.StartReceiveBlob(Byte[] buffer, AsyncProtocolRequest asyncRequest)
   at System.Net.Security.SslState.ForceAuthentication(Boolean receiveFirst, Byte[] buffer, AsyncProtocolRequest asyncRequest)
   at System.Net.Security.SslState.ProcessAuthentication(LazyAsyncResult lazyResult)
   at System.Net.Security.SslStream.BeginAuthenticateAsServer(SslServerAuthenticationOptions sslServerAuthenticationOptions, CancellationToken cancellationToken, AsyncCallback asyncCallback, Object asyncState)
   at System.Net.Security.SslStream.<>c.<AuthenticateAsServerAsync>b__51_0(SslServerAuthenticationOptions arg1, CancellationToken arg2, AsyncCallback callback, Object state)
   at System.Threading.Tasks.TaskFactory`1.FromAsyncImpl[TArg1,TArg2](Func`5 beginMethod, Func`2 endFunction, Action`1 endAction, TArg1 arg1, TArg2 arg2, Object state, TaskCreationOptions creationOptions)
   at System.Threading.Tasks.TaskFactory.FromAsync[TArg1,TArg2](Func`5 beginMethod, Action`1 endMethod, TArg1 arg1, TArg2 arg2, Object state, TaskCreationOptions creationOptions)
   at System.Threading.Tasks.TaskFactory.FromAsync[TArg1,TArg2](Func`5 beginMethod, Action`1 endMethod, TArg1 arg1, TArg2 arg2, Object state)
   at System.Net.Security.SslStream.AuthenticateAsServerAsync(SslServerAuthenticationOptions sslServerAuthenticationOptions, CancellationToken cancellationToken)
   at Microsoft.AspNetCore.Server.Kestrel.Https.Internal.HttpsConnectionAdapter.InnerOnConnectionAsync(ConnectionAdapterContext context)
2018-11-19 17:34:17.958 +00:00 [DBG] Failed to authenticate HTTPS connection.
Microsoft.AspNetCore.Connections.ConnectionResetException: An existing connection was forcibly closed by the remote host ---> System.Net.Sockets.SocketException: An existing connection was forcibly closed by the remote host
   at Microsoft.AspNetCore.Server.Kestrel.Transport.Sockets.Internal.SocketAwaitable.GetResult()
   at Microsoft.AspNetCore.Server.Kestrel.Transport.Sockets.Internal.SocketConnection.ProcessReceives()
   at Microsoft.AspNetCore.Server.Kestrel.Transport.Sockets.Internal.SocketConnection.DoReceive()
   --- End of inner exception stack trace ---
   at System.IO.Pipelines.PipeCompletion.ThrowLatchedException()
   at System.IO.Pipelines.Pipe.GetReadResult(ReadResult& result)
   at System.IO.Pipelines.Pipe.GetReadAsyncResult()
   at System.IO.Pipelines.Pipe.DefaultPipeReader.GetResult(Int16 token)
   at Microsoft.AspNetCore.Server.Kestrel.Core.Adapter.Internal.RawStream.ReadAsyncInternal(Memory`1 destination)
   at System.Net.FixedSizeReader.ReadPacketAsync(Stream transport, AsyncProtocolRequest request)
   at System.Net.Security.SslState.ThrowIfExceptional()
   at System.Net.Security.SslState.InternalEndProcessAuthentication(LazyAsyncResult lazyResult)
   at System.Net.Security.SslState.EndProcessAuthentication(IAsyncResult result)
   at System.Net.Security.SslStream.EndAuthenticateAsServer(IAsyncResult asyncResult)
   at System.Net.Security.SslStream.<>c.<AuthenticateAsServerAsync>b__51_1(IAsyncResult iar)
   at System.Threading.Tasks.TaskFactory`1.FromAsyncCoreLogic(IAsyncResult iar, Func`2 endFunction, Action`1 endAction, Task`1 promise, Boolean requiresSynchronization)
--- End of stack trace from previous location where exception was thrown ---
   at Microsoft.AspNetCore.Server.Kestrel.Https.Internal.HttpsConnectionAdapter.InnerOnConnectionAsync(ConnectionAdapterContext context)
2018-11-19 17:34:19.580 +00:00 [INF] Request starting HTTP/1.1 GET https://localhost:5001/swagger  
2018-11-19 17:34:19.614 +00:00 [INF] Request finished in 34.3272ms 301 
2018-11-19 17:34:19.616 +00:00 [INF] Request starting HTTP/1.1 GET https://localhost:5001/swagger/index.html  
2018-11-19 17:34:19.639 +00:00 [INF] Request finished in 22.9337ms 200 text/html
2018-11-19 17:34:19.681 +00:00 [INF] Request starting HTTP/1.1 GET https://localhost:5001/swagger/swagger-ui-bundle.js  
2018-11-19 17:34:19.681 +00:00 [INF] Request starting HTTP/1.1 GET https://localhost:5001/swagger/swagger-ui-standalone-preset.js  
2018-11-19 17:34:19.681 +00:00 [INF] Request starting HTTP/1.1 GET https://localhost:5001/swagger/swagger-ui.css  
2018-11-19 17:34:19.809 +00:00 [INF] Sending file. Request path: '/swagger-ui.css'. Physical path: 'N/A'
2018-11-19 17:34:19.823 +00:00 [INF] Sending file. Request path: '/swagger-ui-standalone-preset.js'. Physical path: 'N/A'
2018-11-19 17:34:19.830 +00:00 [INF] Request finished in 149.7832ms 200 text/css
2018-11-19 17:34:19.830 +00:00 [INF] Request finished in 149.8523ms 200 application/javascript
2018-11-19 17:34:19.844 +00:00 [INF] Sending file. Request path: '/swagger-ui-bundle.js'. Physical path: 'N/A'
2018-11-19 17:34:19.849 +00:00 [INF] Request finished in 168.2724ms 200 application/javascript
2018-11-19 17:34:20.248 +00:00 [INF] Request starting HTTP/1.1 GET https://localhost:5001/swagger/v1/swagger.json  
2018-11-19 17:34:20.455 +00:00 [INF] Request starting HTTP/1.1 GET https://localhost:5001/swagger/favicon-32x32.png  
2018-11-19 17:34:20.466 +00:00 [INF] Sending file. Request path: '/favicon-32x32.png'. Physical path: 'N/A'
2018-11-19 17:34:20.471 +00:00 [INF] Request finished in 16.0898ms 200 image/png
2018-11-19 17:34:20.473 +00:00 [INF] Request starting HTTP/1.1 GET https://localhost:5001/swagger/favicon-16x16.png  
2018-11-19 17:34:20.478 +00:00 [INF] Sending file. Request path: '/favicon-16x16.png'. Physical path: 'N/A'
2018-11-19 17:34:20.479 +00:00 [INF] Request finished in 6.1515ms 200 image/png
2018-11-19 17:34:20.516 +00:00 [INF] Request finished in 268.3251ms 200 application/json;charset=utf-8
2018-11-19 17:36:21.925 +00:00 [INF] Request starting HTTP/1.1 GET https://localhost:5001/index.html  
2018-11-19 17:36:22.033 +00:00 [INF] Sending file. Request path: '/index.html'. Physical path: 'C:\CS\PoachMe\PoachMe\PoachMe\wwwroot\index.html'
2018-11-19 17:36:22.084 +00:00 [INF] Request starting HTTP/1.1 GET https://localhost:5001/css/Custom.css  
2018-11-19 17:36:22.139 +00:00 [INF] Request starting HTTP/1.1 GET https://localhost:5001/album.css  
2018-11-19 17:36:22.171 +00:00 [INF] Request starting HTTP/1.1 GET https://localhost:5001/js/bootstrap.min.js  
2018-11-19 17:36:22.174 +00:00 [INF] Request finished in 248.7902ms 200 text/html
2018-11-19 17:36:22.175 +00:00 [INF] Request finished in 37.4293ms 404 
2018-11-19 17:36:22.178 +00:00 [INF] Request starting HTTP/1.1 GET https://localhost:5001/css/bootstrap.min.css  
2018-11-19 17:36:22.207 +00:00 [INF] Sending file. Request path: '/css/Custom.css'. Physical path: 'C:\CS\PoachMe\PoachMe\PoachMe\wwwroot\css\Custom.css'
2018-11-19 17:36:22.220 +00:00 [INF] Request finished in 135.6664ms 200 text/css
2018-11-19 17:36:22.292 +00:00 [INF] Sending file. Request path: '/css/bootstrap.min.css'. Physical path: 'C:\CS\PoachMe\PoachMe\PoachMe\wwwroot\css\bootstrap.min.css'
2018-11-19 17:36:22.295 +00:00 [INF] Request finished in 116.3852ms 200 text/css
2018-11-19 17:36:22.332 +00:00 [INF] Sending file. Request path: '/js/bootstrap.min.js'. Physical path: 'C:\CS\PoachMe\PoachMe\PoachMe\wwwroot\js\bootstrap.min.js'
2018-11-19 17:36:22.337 +00:00 [INF] Request finished in 166.0635ms 200 application/javascript
2018-11-19 17:36:22.766 +00:00 [INF] Request starting HTTP/1.1 GET https://localhost:5001/favicon.ico  
2018-11-19 17:36:22.767 +00:00 [INF] Request finished in 1.1237ms 404 
2018-11-19 17:36:24.703 +00:00 [INF] Request starting HTTP/1.1 GET https://localhost:5001/Categories.html  
2018-11-19 17:36:24.779 +00:00 [INF] Sending file. Request path: '/Categories.html'. Physical path: 'C:\CS\PoachMe\PoachMe\PoachMe\wwwroot\Categories.html'
2018-11-19 17:36:24.784 +00:00 [INF] Request finished in 80.3412ms 200 text/html
2018-11-19 17:36:24.795 +00:00 [INF] Request starting HTTP/1.1 GET https://localhost:5001/album.css  
2018-11-19 17:36:24.795 +00:00 [INF] Request starting HTTP/1.1 GET https://localhost:5001/css/bootstrap.min.css  
2018-11-19 17:36:24.798 +00:00 [INF] Request finished in 2.81ms 404 
2018-11-19 17:36:24.802 +00:00 [INF] Sending file. Request path: '/css/bootstrap.min.css'. Physical path: 'C:\CS\PoachMe\PoachMe\PoachMe\wwwroot\css\bootstrap.min.css'
2018-11-19 17:36:24.815 +00:00 [INF] Request finished in 19.9017ms 200 text/css
2018-11-19 17:36:27.910 +00:00 [INF] Request starting HTTP/1.1 GET https://localhost:5001/Profile.html  
2018-11-19 17:36:27.968 +00:00 [INF] Sending file. Request path: '/Profile.html'. Physical path: 'C:\CS\PoachMe\PoachMe\PoachMe\wwwroot\Profile.html'
2018-11-19 17:36:27.982 +00:00 [INF] Request starting HTTP/1.1 GET https://localhost:5001/album.css  
2018-11-19 17:36:27.982 +00:00 [INF] Request starting HTTP/1.1 GET https://localhost:5001/css/Custom.css  
2018-11-19 17:36:27.984 +00:00 [INF] Request finished in 73.9939ms 200 text/html
2018-11-19 17:36:27.986 +00:00 [INF] Request finished in 3.7137ms 404 
2018-11-19 17:36:27.992 +00:00 [INF] Sending file. Request path: '/css/Custom.css'. Physical path: 'C:\CS\PoachMe\PoachMe\PoachMe\wwwroot\css\Custom.css'
2018-11-19 17:36:27.992 +00:00 [INF] Request starting HTTP/1.1 GET https://localhost:5001/css/bootstrap.min.css  
2018-11-19 17:36:27.996 +00:00 [INF] Request finished in 14.0736ms 200 text/css
2018-11-19 17:36:28.003 +00:00 [INF] Sending file. Request path: '/css/bootstrap.min.css'. Physical path: 'C:\CS\PoachMe\PoachMe\PoachMe\wwwroot\css\bootstrap.min.css'
2018-11-19 17:36:28.008 +00:00 [INF] Request finished in 16.1189ms 200 text/css
2018-11-19 17:37:21.833 +00:00 [INF] Request starting HTTP/1.1 GET https://localhost:5001/Profile.html  
2018-11-19 17:37:21.850 +00:00 [INF] Sending file. Request path: '/Profile.html'. Physical path: 'C:\CS\PoachMe\PoachMe\PoachMe\wwwroot\Profile.html'
2018-11-19 17:37:21.884 +00:00 [INF] Request finished in 50.8171ms 200 text/html
2018-11-19 17:37:21.886 +00:00 [INF] Request starting HTTP/1.1 GET https://localhost:5001/css/bootstrap.min.css  
2018-11-19 17:37:21.907 +00:00 [INF] Request starting HTTP/1.1 GET https://localhost:5001/css/Custom.css  
2018-11-19 17:37:21.908 +00:00 [INF] Request starting HTTP/1.1 GET https://localhost:5001/album.css  
2018-11-19 17:37:21.911 +00:00 [INF] Sending file. Request path: '/css/Custom.css'. Physical path: 'C:\CS\PoachMe\PoachMe\PoachMe\wwwroot\css\Custom.css'
2018-11-19 17:37:21.912 +00:00 [INF] Request finished in 4.0371ms 404 
2018-11-19 17:37:21.914 +00:00 [INF] Request finished in 6.6996ms 200 text/css
2018-11-19 17:37:21.915 +00:00 [INF] Sending file. Request path: '/css/bootstrap.min.css'. Physical path: 'C:\CS\PoachMe\PoachMe\PoachMe\wwwroot\css\bootstrap.min.css'
2018-11-19 17:37:21.931 +00:00 [INF] Request finished in 45.5907ms 200 text/css
